{
  "images" : [
    {
      "idiom" : "universal"
    },
    {
      "idiom" : "universal",
      "appearances" : [
        {
          "appearance" : "contrast",
          "value" : "high"
        }
      ]
    },
    {
      "idiom" : "universal",
      "filename" : "Left_menu_rejected_claims_64.png",
      "unassigned" : true,
      "scale" : "1x"
    }
  ],
  "info" : {
    "version" : 1,
    "author" : "xcode"
  },
  "properties" : {
    "preserves-vector-representation" : true
  }
}